
verkal_dromak_expulsion_of_mages = {
	potential = {
		has_country_flag = verkal_dromak_mage_expulsion
		NOT = { has_country_flag = verkal_dromak_mage_expulsion_happened }
	}
	
	
	can_start = {
		always = yes
	}
	
	
	can_stop = {
        always = no
	}
	
	progress = {
		modifier = {
			factor = 100
			custom_trigger_tooltip = {
				tooltip = something_is_going_up_tooltip
				always = yes
			}
		}
	}
	
	can_end = {
		OR = {
			#Option 1: Mages won
			custom_trigger_tooltip = {
				tooltip = verkal_dromak_mages_enforced
				has_country_flag = verkal_dromak_mages_enforced_demands
			}
			
			#Option 2: Killed all mages
			AND = {
				NOT = {
					estate_influence = {
						estate = estate_mages
						influence = 1
					}
				}
				NOT = { num_of_rebel_controlled_provinces = 1 }
			}
			

			hidden_trigger = {
				has_country_flag = banned_magic
			}
		}
	}
	
	modifier = {
		land_morale = -0.1
		global_manpower = -0.2
		all_power_cost = 0.2
	}
	
	on_start = verkaldromak.175
	on_end = verkaldromak.176
	
	on_monthly = {
		events = {
		}
		random_events = {
			2 = verkaldromak.170 #kill mages in hold
			1 = verkaldromak.171 #destroy mage tower
			2 = verkaldromak.172 #sweep through the rails
			4 = verkaldromak.173 #spawn rebels
<<<<<<< HEAD
			14 = 0
=======
			12 = 0
>>>>>>> steam
		}
	}
}

