
elchos_missions = {
	slot = 2
	generic = yes
	ai = yes
	potential = {
		tag = H04
	}
	
	elchos_legacy_of_goldtree_rebellion = {
		icon = mission_warrior_gold
		required_missions = { }
		position = 1
		
		trigger = {
			army_size_percentage = 1
			manpower_percentage = 0.8
			OR = {
				advisor = army_organiser
				advisor = army_reformer
				advisor = commandant
				advisor = grand_captain
				advisor = recruitmaster
				advisor = fortification_expert
				advisor = quartermaster
			}
		}
		
		effect = {
			add_country_modifier = {
				name = "elchos_legacy_of_goldtree"
				duration = 9125 #25 years
			}
		}
	}
	elchos_elchosi_war_of_supremacy = {
		icon = mission_subdue_rajputana
		required_missions = { elchos_legacy_of_goldtree_rebellion }
		position = 2
		
		provinces_to_highlight = {
			OR = {
				AND = {
					province_id = 2007
					NOT = { owned_by = ROOT }
				}
				owned_by = H01
			}
		}
		trigger = {
			2008 = {
				owned_by = ROOT
			}
			NOT = { exists = H01 }
		}
		effect = {
			2007 = { add_core = ROOT }
			2007 = {
				add_base_tax = -1
				add_base_production = -1
				add_base_manpower = -1
			}
			add_years_of_income = 2
			2008 = {
				add_base_tax = 1
				add_base_production = 1
				add_base_manpower = 1
			}
			add_estate_loyalty = {
				estate = estate_nobles
				loyalty = 15
			}
			add_estate_influence_modifier = {
				estate = estate_nobles
				influence = 10
			}
			reduce_estate_church_loyalty_effect = yes
			add_estate_influence_modifier = {
				estate = estate_church 
				influence = -10
			}
			add_country_modifier = {
				name = "elchos_reign_goldtree"
				duration = 9125 #25 years
			}
		}
	}
	elchos_glorelthiran_ambitions = {
		icon = mission_trade_with_cathay
		required_missions = { elchos_elchosi_war_of_supremacy }
		position = 3
		
		trigger = {
			home_trade_node = {
				is_strongest_trade_power = ROOT
			}
			custom_trigger_tooltip = {
				tooltip = navy_size_30_tooltip
				navy_size = 30
			}
		}
		effect = {
			add_country_modifier = {
				name = "elchos_trade_dominance"
				duration = 5475 #15 years
			}
		}
	}
}